[gd_scene load_steps=5 format=2]

[ext_resource path="res://fight_mode/scenes/Player.tscn" type="PackedScene" id=1]
[ext_resource path="res://fight_mode/assets/Sprites/Characters/jerem/turn_sprite.png" type="Texture" id=2]
[ext_resource path="res://fight_mode/assets/Animations/Jerem.tres" type="SpriteFrames" id=3]
[ext_resource path="res://fight_mode/assets/Sprites/Characters/jerem/big_picture_jerem.png" type="Texture" id=4]

[node name="Jerem" index="0" instance=ExtResource( 1 )]

_sections_unfolded = [ "Material", "Transform", "Visibility", "Z Index" ]
offense_skill = 15
defense_skill = 15
reflex_skill = 15
teammate_skill = 20
move_skill = 18
turn_sprite = ExtResource( 2 )

[node name="AnimatedSprite" parent="." index="4"]

position = Vector2( 0, -10 )
frames = ExtResource( 3 )
animation = "victory"
frame = 1
_sections_unfolded = [ "Material", "Pause", "Transform", "Visibility" ]

[node name="LifeProgress" parent="." index="5"]

margin_top = -49.0
margin_bottom = -9.0

[node name="BigPicture" parent="." index="6"]

texture = ExtResource( 4 )

[node name="Target" parent="." index="9"]

position = Vector2( -1.0281, -59.7635 )


