[gd_resource type="Animation" format=2]

[resource]

resource_name = "Intro"
length = 180.0
loop = false
step = 0.1
tracks/0/type = "value"
tracks/0/path = NodePath("Jerem:position")
tracks/0/interp = 1
tracks/0/loop_wrap = true
tracks/0/imported = false
tracks/0/enabled = true
tracks/0/keys = {
"times": PoolRealArray( 0, 2.6 ),
"transitions": PoolRealArray( 1, 1 ),
"update": 0,
"values": [ Vector2( 1078, 446.999 ), Vector2( 516.822, 462.988 ) ]
}
tracks/1/type = "value"
tracks/1/path = NodePath("Blond:position")
tracks/1/interp = 1
tracks/1/loop_wrap = true
tracks/1/imported = false
tracks/1/enabled = true
tracks/1/keys = {
"times": PoolRealArray( 0, 2.6 ),
"transitions": PoolRealArray( 1, 1 ),
"update": 0,
"values": [ Vector2( -65.4879, 452.683 ), Vector2( 481.169, 460.644 ) ]
}
tracks/2/type = "value"
tracks/2/path = NodePath("Jerem/AnimatedSprite:animation")
tracks/2/interp = 1
tracks/2/loop_wrap = true
tracks/2/imported = false
tracks/2/enabled = true
tracks/2/keys = {
"times": PoolRealArray( 0, 2.6, 3, 4, 5.1, 6.2, 11.3, 12.7, 23.6, 25.3, 32.6, 35.8, 36.3, 49.9, 51.1, 54, 56.1, 64.6, 70.3 ),
"transitions": PoolRealArray( 1, 1, 1, 1, 1, 1, 1, 1, 1, 1, 1, 1, 1, 1, 1, 1, 1, 1, 1 ),
"update": 1,
"values": [ "walk_left", "wait_left", "check", "talk", "wait_left", "talk", "wait_left", "talk", "wait_left", "talk", "wait_left", "talk", "wait_up", "wait_left", "talk", "wait_up", "talk", "wait_up", "wait_bow_up" ]
}
tracks/3/type = "value"
tracks/3/path = NodePath("Blond/AnimatedSprite:animation")
tracks/3/interp = 1
tracks/3/loop_wrap = true
tracks/3/imported = false
tracks/3/enabled = true
tracks/3/keys = {
"times": PoolRealArray( 0, 2.6, 3, 5.4, 6.1, 11.5, 12.3, 21.6, 22, 23.6, 25, 33.4, 34.3, 37.2, 47.3, 51.1, 59.4, 60, 62.1, 62.6, 64.3, 71.4 ),
"transitions": PoolRealArray( 1, 1, 1, 1, 1, 1, 1, 1, 1, 1, 1, 1, 1, 1, 1, 1, 1, 1, 1, 1, 1, 1 ),
"update": 1,
"values": [ "walk_right", "wait_right", "check", "talk", "wait_right", "talk", "wait_right", "talk", "wait_right", "talk", "wait_right", "talk", "wait_right", "wait_up", "talk", "wait_right", "talk", "wait_right", "talk", "wait_right", "wait_up", "wait_sword_up" ]
}
tracks/4/type = "value"
tracks/4/path = NodePath("Blond/RunParticles:emitting")
tracks/4/interp = 1
tracks/4/loop_wrap = true
tracks/4/imported = false
tracks/4/enabled = true
tracks/4/keys = {
"times": PoolRealArray( 0, 2.6 ),
"transitions": PoolRealArray( 1, 1 ),
"update": 1,
"values": [ true, false ]
}
tracks/5/type = "value"
tracks/5/path = NodePath("Jerem/RunParticles:emitting")
tracks/5/interp = 1
tracks/5/loop_wrap = true
tracks/5/imported = false
tracks/5/enabled = true
tracks/5/keys = {
"times": PoolRealArray( 0, 2.6 ),
"transitions": PoolRealArray( 1, 1 ),
"update": 1,
"values": [ true, false ]
}
tracks/6/type = "value"
tracks/6/path = NodePath("GB:position")
tracks/6/interp = 1
tracks/6/loop_wrap = true
tracks/6/imported = false
tracks/6/enabled = true
tracks/6/keys = {
"times": PoolRealArray( 0, 35, 38.9 ),
"transitions": PoolRealArray( 1, 1, 1 ),
"update": 0,
"values": [ Vector2( 375.577, -64.9832 ), Vector2( 397.228, -42.1715 ), Vector2( 467.806, 376.822 ) ]
}
tracks/7/type = "value"
tracks/7/path = NodePath("MiniLeo:position")
tracks/7/interp = 1
tracks/7/loop_wrap = true
tracks/7/imported = false
tracks/7/enabled = true
tracks/7/keys = {
"times": PoolRealArray( 0, 43.2, 46.2 ),
"transitions": PoolRealArray( 1, 1, 1 ),
"update": 0,
"values": [ Vector2( 672.36, -61.8893 ), Vector2( 621.749, -43.4929 ), Vector2( 528.074, 385.024 ) ]
}
tracks/8/type = "value"
tracks/8/path = NodePath("MiniLeo/AnimatedSprite:animation")
tracks/8/interp = 1
tracks/8/loop_wrap = true
tracks/8/imported = false
tracks/8/enabled = true
tracks/8/keys = {
"times": PoolRealArray( 43.2, 46.2, 70.1 ),
"transitions": PoolRealArray( 1, 1, 1 ),
"update": 1,
"values": [ "walk_down", "wait_down", "wait_sword_down" ]
}
tracks/9/type = "value"
tracks/9/path = NodePath("GB/AnimatedSprite:animation")
tracks/9/interp = 1
tracks/9/loop_wrap = true
tracks/9/imported = false
tracks/9/enabled = true
tracks/9/keys = {
"times": PoolRealArray( 35, 39, 70.1 ),
"transitions": PoolRealArray( 1, 1, 1 ),
"update": 1,
"values": [ "walk_down", "wait_down", "wait_bow_down" ]
}
tracks/10/type = "value"
tracks/10/path = NodePath("GB/RunParticles:emitting")
tracks/10/interp = 1
tracks/10/loop_wrap = true
tracks/10/imported = false
tracks/10/enabled = true
tracks/10/keys = {
"times": PoolRealArray( 35, 39 ),
"transitions": PoolRealArray( 1, 1 ),
"update": 1,
"values": [ true, false ]
}
tracks/11/type = "value"
tracks/11/path = NodePath("MiniLeo/RunParticles:emitting")
tracks/11/interp = 1
tracks/11/loop_wrap = true
tracks/11/imported = false
tracks/11/enabled = true
tracks/11/keys = {
"times": PoolRealArray( 43.2, 46.2 ),
"transitions": PoolRealArray( 1, 1 ),
"update": 1,
"values": [ true, false ]
}
tracks/12/type = "value"
tracks/12/path = NodePath("AudioStreamPlayer:playing")
tracks/12/interp = 1
tracks/12/loop_wrap = true
tracks/12/imported = false
tracks/12/enabled = true
tracks/12/keys = {
"times": PoolRealArray( 0, 72 ),
"transitions": PoolRealArray( 1, 1 ),
"update": 1,
"values": [ true, false ]
}
tracks/13/type = "value"
tracks/13/path = NodePath("Blond/AnimatedSprite:frame")
tracks/13/interp = 1
tracks/13/loop_wrap = true
tracks/13/imported = false
tracks/13/enabled = true
tracks/13/keys = {
"times": PoolRealArray( 3 ),
"transitions": PoolRealArray( 1 ),
"update": 1,
"values": [ 0 ]
}
tracks/14/type = "value"
tracks/14/path = NodePath("Jerem/AnimatedSprite:frame")
tracks/14/interp = 1
tracks/14/loop_wrap = true
tracks/14/imported = false
tracks/14/enabled = true
tracks/14/keys = {
"times": PoolRealArray( 3 ),
"transitions": PoolRealArray( 1 ),
"update": 1,
"values": [ 0 ]
}
tracks/15/type = "value"
tracks/15/path = NodePath("NinePatchRect:rect_position")
tracks/15/interp = 1
tracks/15/loop_wrap = true
tracks/15/imported = false
tracks/15/enabled = true
tracks/15/keys = {
"times": PoolRealArray( 70.5, 73.7 ),
"transitions": PoolRealArray( 1, 1 ),
"update": 0,
"values": [ Vector2( 497, 417 ), Vector2( 309, 72 ) ]
}
tracks/16/type = "value"
tracks/16/path = NodePath("NinePatchRect:rect_scale")
tracks/16/interp = 1
tracks/16/loop_wrap = true
tracks/16/imported = false
tracks/16/enabled = true
tracks/16/keys = {
"times": PoolRealArray( 70.5, 73.7 ),
"transitions": PoolRealArray( 1, 1 ),
"update": 0,
"values": [ Vector2( 0.1, 0.1 ), Vector2( 10, 10 ) ]
}
tracks/17/type = "method"
tracks/17/path = NodePath(".")
tracks/17/interp = 1
tracks/17/loop_wrap = true
tracks/17/imported = false
tracks/17/enabled = true
tracks/17/keys = {
"times": PoolRealArray( 66.4 ),
"transitions": PoolRealArray( 1 ),
"values": [ {
"args": [  ],
"method": "play_BG_music"
} ]
}
tracks/18/type = "method"
tracks/18/path = NodePath(".")
tracks/18/interp = 1
tracks/18/loop_wrap = true
tracks/18/imported = false
tracks/18/enabled = true
tracks/18/keys = {
"times": PoolRealArray( 66.4, 67.2, 70.5 ),
"transitions": PoolRealArray( 1, 1, 4 ),
"values": [ {
"args": [ -80.0, 0.79 ],
"method": "set_BG_db"
}, {
"args": [ -30.0, 3.31 ],
"method": "set_BG_db"
}, {
"args": [ -5.0, 3.19 ],
"method": "set_BG_db"
} ]
}
tracks/19/type = "value"
tracks/19/path = NodePath("NinePatchRect:visible")
tracks/19/interp = 1
tracks/19/loop_wrap = true
tracks/19/imported = false
tracks/19/enabled = true
tracks/19/keys = {
"times": PoolRealArray( 0, 70.5 ),
"transitions": PoolRealArray( 1, 1 ),
"update": 1,
"values": [ false, true ]
}
tracks/20/type = "method"
tracks/20/path = NodePath(".")
tracks/20/interp = 1
tracks/20/loop_wrap = true
tracks/20/imported = false
tracks/20/enabled = true
tracks/20/keys = {
"times": PoolRealArray( 0, 2.6, 35.1, 39, 43.2, 46.2 ),
"transitions": PoolRealArray( 1, 1, 1, 1, 1, 1 ),
"values": [ {
"args": [  ],
"method": "play_step_sound"
}, {
"args": [  ],
"method": "stop_step_sound"
}, {
"args": [  ],
"method": "play_step_sound"
}, {
"args": [  ],
"method": "stop_step_sound"
}, {
"args": [  ],
"method": "play_step_sound"
}, {
"args": [  ],
"method": "stop_step_sound"
} ]
}
tracks/21/type = "value"
tracks/21/path = NodePath("GB:modulate")
tracks/21/interp = 1
tracks/21/loop_wrap = true
tracks/21/imported = false
tracks/21/enabled = true
tracks/21/keys = {
"times": PoolRealArray( 0, 72, 73.2 ),
"transitions": PoolRealArray( 1, 1, 1 ),
"update": 0,
"values": [ Color( 1, 1, 1, 1 ), Color( 1, 1, 1, 1 ), Color( 1, 1, 1, 0 ) ]
}
tracks/22/type = "value"
tracks/22/path = NodePath("Jerem:modulate")
tracks/22/interp = 1
tracks/22/loop_wrap = true
tracks/22/imported = false
tracks/22/enabled = true
tracks/22/keys = {
"times": PoolRealArray( 0, 72, 73.2 ),
"transitions": PoolRealArray( 1, 1, 1 ),
"update": 0,
"values": [ Color( 1, 1, 1, 1 ), Color( 1, 1, 1, 1 ), Color( 1, 1, 1, 0 ) ]
}
tracks/23/type = "value"
tracks/23/path = NodePath("MiniLeo:modulate")
tracks/23/interp = 1
tracks/23/loop_wrap = true
tracks/23/imported = false
tracks/23/enabled = true
tracks/23/keys = {
"times": PoolRealArray( 0, 72, 73.2 ),
"transitions": PoolRealArray( 1, 1, 1 ),
"update": 0,
"values": [ Color( 1, 1, 1, 1 ), Color( 1, 1, 1, 1 ), Color( 1, 1, 1, 0 ) ]
}
tracks/24/type = "value"
tracks/24/path = NodePath("Blond:modulate")
tracks/24/interp = 1
tracks/24/loop_wrap = true
tracks/24/imported = false
tracks/24/enabled = true
tracks/24/keys = {
"times": PoolRealArray( 0, 72, 73.2 ),
"transitions": PoolRealArray( 1, 1, 1 ),
"update": 0,
"values": [ Color( 1, 1, 1, 1 ), Color( 1, 1, 1, 1 ), Color( 1, 1, 1, 0 ) ]
}
tracks/25/type = "value"
tracks/25/path = NodePath("ColorRect:color")
tracks/25/interp = 1
tracks/25/loop_wrap = true
tracks/25/imported = false
tracks/25/enabled = true
tracks/25/keys = {
"times": PoolRealArray( 0, 72, 73.2 ),
"transitions": PoolRealArray( 1, 1, 1 ),
"update": 0,
"values": [ Color( 0.25, 0.25, 0.25, 1 ), Color( 0.25, 0.25, 0.25, 1 ), Color( 0, 0, 0, 0 ) ]
}
tracks/26/type = "value"
tracks/26/path = NodePath("NinePatchRect/Particles2D:visible")
tracks/26/interp = 1
tracks/26/loop_wrap = true
tracks/26/imported = false
tracks/26/enabled = true
tracks/26/keys = {
"times": PoolRealArray( 0, 70.5 ),
"transitions": PoolRealArray( 1, 1 ),
"update": 1,
"values": [ false, true ]
}
tracks/27/type = "value"
tracks/27/path = NodePath("NinePatchRect/Particles2D:scale")
tracks/27/interp = 1
tracks/27/loop_wrap = true
tracks/27/imported = false
tracks/27/enabled = true
tracks/27/keys = {
"times": PoolRealArray( 70.5 ),
"transitions": PoolRealArray( 1 ),
"update": 0,
"values": [ Vector2( 1, 1 ) ]
}
tracks/28/type = "value"
tracks/28/path = NodePath("NinePatchRect/Particles2D:emitting")
tracks/28/interp = 1
tracks/28/loop_wrap = true
tracks/28/imported = false
tracks/28/enabled = true
tracks/28/keys = {
"times": PoolRealArray( 0, 69.4, 73.2 ),
"transitions": PoolRealArray( 1, 1, 1 ),
"update": 1,
"values": [ false, true, false ]
}
tracks/29/type = "value"
tracks/29/path = NodePath("Title:rect_position")
tracks/29/interp = 2
tracks/29/loop_wrap = true
tracks/29/imported = false
tracks/29/enabled = true
tracks/29/keys = {
"times": PoolRealArray( 0, 73.2, 75.5 ),
"transitions": PoolRealArray( 1, 4, 1 ),
"update": 0,
"values": [ Vector2( -311, 785 ), Vector2( -312, 787 ), Vector2( 108, 530 ) ]
}
tracks/30/type = "value"
tracks/30/path = NodePath("Title:rect_scale")
tracks/30/interp = 2
tracks/30/loop_wrap = true
tracks/30/imported = false
tracks/30/enabled = true
tracks/30/keys = {
"times": PoolRealArray( 0, 73.2, 75.5 ),
"transitions": PoolRealArray( 1, 4, 1 ),
"update": 0,
"values": [ Vector2( 1.9956, 1.9956 ), Vector2( 2, 2 ), Vector2( 1, 1 ) ]
}
tracks/31/type = "method"
tracks/31/path = NodePath("Camera2D")
tracks/31/interp = 1
tracks/31/loop_wrap = true
tracks/31/imported = false
tracks/31/enabled = true
tracks/31/keys = {
"times": PoolRealArray( 75.3 ),
"transitions": PoolRealArray( 1 ),
"values": [ {
"args": [ 3, 12.0, 16.0 ],
"method": "shake"
} ]
}
tracks/32/type = "value"
tracks/32/path = NodePath("BG:modulate")
tracks/32/interp = 1
tracks/32/loop_wrap = true
tracks/32/imported = false
tracks/32/enabled = true
tracks/32/keys = {
"times": PoolRealArray( 0, 72, 73.2 ),
"transitions": PoolRealArray( 1, 1, 1 ),
"update": 0,
"values": [ Color( 1, 1, 1, 0 ), Color( 1, 1, 1, 0 ), Color( 1, 1, 1, 1 ) ]
}

