<?xml version="1.0" encoding="UTF-8" standalone="no"?>
<!-- Created with Inkscape (http://www.inkscape.org/) -->

<svg
   xmlns:dc="http://purl.org/dc/elements/1.1/"
   xmlns:cc="http://creativecommons.org/ns#"
   xmlns:rdf="http://www.w3.org/1999/02/22-rdf-syntax-ns#"
   xmlns:svg="http://www.w3.org/2000/svg"
   xmlns="http://www.w3.org/2000/svg"
   xmlns:sodipodi="http://sodipodi.sourceforge.net/DTD/sodipodi-0.dtd"
   xmlns:inkscape="http://www.inkscape.org/namespaces/inkscape"
   width="210mm"
   height="297mm"
   viewBox="0 0 210 297"
   version="1.1"
   id="svg8"
   inkscape:version="0.92.3 (2405546, 2018-03-11)"
   sodipodi:docname="turns.svg">
  <defs
     id="defs2" />
  <sodipodi:namedview
     id="base"
     pagecolor="#ffffff"
     bordercolor="#666666"
     borderopacity="1.0"
     inkscape:pageopacity="0.0"
     inkscape:pageshadow="2"
     inkscape:zoom="1.979899"
     inkscape:cx="358.28613"
     inkscape:cy="850.86923"
     inkscape:document-units="mm"
     inkscape:current-layer="layer1"
     showgrid="false"
     inkscape:window-width="3200"
     inkscape:window-height="1675"
     inkscape:window-x="-13"
     inkscape:window-y="-13"
     inkscape:window-maximized="1" />
  <metadata
     id="metadata5">
    <rdf:RDF>
      <cc:Work
         rdf:about="">
        <dc:format>image/svg+xml</dc:format>
        <dc:type
           rdf:resource="http://purl.org/dc/dcmitype/StillImage" />
        <dc:title></dc:title>
      </cc:Work>
    </rdf:RDF>
  </metadata>
  <g
     inkscape:label="Calque 1"
     inkscape:groupmode="layer"
     id="layer1">
    <rect
       style="opacity:1;vector-effect:none;fill:#ffb790;fill-opacity:1;fill-rule:nonzero;stroke:#001800;stroke-width:1;stroke-linecap:round;stroke-linejoin:miter;stroke-miterlimit:4;stroke-dasharray:none;stroke-dashoffset:0;stroke-opacity:1;paint-order:normal"
       id="rect815"
       width="34.611404"
       height="22.049736"
       x="3.6081386"
       y="11.15524"
       inkscape:export-xdpi="142.65092"
       inkscape:export-ydpi="142.65092" />
    <text
       xml:space="preserve"
       style="font-style:normal;font-weight:normal;font-size:21.16666603px;line-height:1.25;font-family:sans-serif;letter-spacing:0px;word-spacing:0px;fill:#000000;fill-opacity:1;stroke:none;stroke-width:0.26458332"
       x="4.8993154"
       y="29.895399"
       id="text819"
       inkscape:export-xdpi="142.65092"
       inkscape:export-ydpi="142.65092"><tspan
         sodipodi:role="line"
         x="4.8993154"
         y="29.895399"
         style="stroke-width:0.26458332"
         id="tspan821">ML</tspan></text>
    <rect
       y="44.964836"
       x="3.6081386"
       height="22.049736"
       width="34.611404"
       id="rect825"
       style="opacity:1;vector-effect:none;fill:#ffb790;fill-opacity:1;fill-rule:nonzero;stroke:#001800;stroke-width:1;stroke-linecap:round;stroke-linejoin:miter;stroke-miterlimit:4;stroke-dasharray:none;stroke-dashoffset:0;stroke-opacity:1;paint-order:normal"
       inkscape:export-xdpi="142.65092"
       inkscape:export-ydpi="142.65092" />
    <text
       id="text829"
       y="63.704994"
       x="4.8993154"
       style="font-style:normal;font-weight:normal;font-size:21.16666603px;line-height:1.25;font-family:sans-serif;letter-spacing:0px;word-spacing:0px;fill:#000000;fill-opacity:1;stroke:none;stroke-width:0.26458332"
       xml:space="preserve"
       inkscape:export-xdpi="142.65092"
       inkscape:export-ydpi="142.65092"><tspan
         id="tspan827"
         style="stroke-width:0.26458332"
         y="63.704994"
         x="4.8993154"
         sodipodi:role="line">GB</tspan></text>
    <rect
       style="opacity:1;vector-effect:none;fill:#ffb790;fill-opacity:1;fill-rule:nonzero;stroke:#001800;stroke-width:1;stroke-linecap:round;stroke-linejoin:miter;stroke-miterlimit:4;stroke-dasharray:none;stroke-dashoffset:0;stroke-opacity:1;paint-order:normal"
       id="rect831"
       width="34.611404"
       height="22.049736"
       x="3.6081386"
       y="77.571716"
       inkscape:export-xdpi="142.65092"
       inkscape:export-ydpi="142.65092" />
    <text
       xml:space="preserve"
       style="font-style:normal;font-weight:normal;font-size:21.16666603px;line-height:1.25;font-family:sans-serif;letter-spacing:0px;word-spacing:0px;fill:#000000;fill-opacity:1;stroke:none;stroke-width:0.26458332"
       x="13.363914"
       y="96.311874"
       id="text835"
       inkscape:export-xdpi="142.65092"
       inkscape:export-ydpi="142.65092"><tspan
         sodipodi:role="line"
         x="13.363914"
         y="96.311874"
         style="stroke-width:0.26458332"
         id="tspan833">B</tspan></text>
    <rect
       y="77.70536"
       x="45.97036"
       height="22.049736"
       width="34.611404"
       id="rect837"
       style="opacity:1;vector-effect:none;fill:#ffb790;fill-opacity:1;fill-rule:nonzero;stroke:#001800;stroke-width:1;stroke-linecap:round;stroke-linejoin:miter;stroke-miterlimit:4;stroke-dasharray:none;stroke-dashoffset:0;stroke-opacity:1;paint-order:normal"
       inkscape:export-xdpi="142.65092"
       inkscape:export-ydpi="142.65092" />
    <text
       id="text841"
       y="94.32679"
       x="61.741272"
       style="font-style:normal;font-weight:normal;font-size:21.16666603px;line-height:1.25;font-family:sans-serif;letter-spacing:0px;word-spacing:0px;fill:#000000;fill-opacity:1;stroke:none;stroke-width:0.26458332"
       xml:space="preserve"
       inkscape:export-xdpi="142.65092"
       inkscape:export-ydpi="142.65092"><tspan
         id="tspan839"
         style="stroke-width:0.26458332"
         y="94.32679"
         x="61.741272"
         sodipodi:role="line">J</tspan></text>
    <rect
       style="opacity:1;vector-effect:none;fill:#ffb790;fill-opacity:1;fill-rule:nonzero;stroke:#001800;stroke-width:1;stroke-linecap:round;stroke-linejoin:miter;stroke-miterlimit:4;stroke-dasharray:none;stroke-dashoffset:0;stroke-opacity:1;paint-order:normal"
       id="rect843"
       width="34.611404"
       height="22.049736"
       x="46.504898"
       y="11.155247"
       inkscape:export-xdpi="142.65092"
       inkscape:export-ydpi="142.65092" />
    <text
       xml:space="preserve"
       style="font-style:normal;font-weight:normal;font-size:21.16666603px;line-height:1.25;font-family:sans-serif;letter-spacing:0px;word-spacing:0px;fill:#000000;fill-opacity:1;stroke:none;stroke-width:0.26458332"
       x="55.883434"
       y="29.885071"
       id="text847"
       inkscape:export-xdpi="142.65092"
       inkscape:export-ydpi="142.65092"><tspan
         sodipodi:role="line"
         x="55.883434"
         y="29.885071"
         style="stroke-width:0.26458332"
         id="tspan845">G</tspan></text>
    <rect
       y="44.831207"
       x="46.504898"
       height="22.049736"
       width="34.611404"
       id="rect849"
       style="opacity:1;vector-effect:none;fill:#ffb790;fill-opacity:1;fill-rule:nonzero;stroke:#001800;stroke-width:1;stroke-linecap:round;stroke-linejoin:miter;stroke-miterlimit:4;stroke-dasharray:none;stroke-dashoffset:0;stroke-opacity:1;paint-order:normal"
       inkscape:export-xdpi="142.65092"
       inkscape:export-ydpi="142.65092" />
    <text
       id="text853"
       y="63.561031"
       x="55.883434"
       style="font-style:normal;font-weight:normal;font-size:21.16666603px;line-height:1.25;font-family:sans-serif;letter-spacing:0px;word-spacing:0px;fill:#000000;fill-opacity:1;stroke:none;stroke-width:0.26458332"
       xml:space="preserve"
       inkscape:export-xdpi="142.65092"
       inkscape:export-ydpi="142.65092"><tspan
         id="tspan851"
         style="stroke-width:0.26458332"
         y="63.561031"
         x="55.883434"
         sodipodi:role="line">D</tspan></text>
  </g>
</svg>
