[gd_resource type="SpriteFrames" load_steps=188 format=2]

[ext_resource path="res://fight_mode/assets/Sprites/Characters/GB/attack_bow_front_64/sprite_0.png" type="Texture" id=1]
[ext_resource path="res://fight_mode/assets/Sprites/Characters/GB/attack_bow_front_64/sprite_1.png" type="Texture" id=2]
[ext_resource path="res://fight_mode/assets/Sprites/Characters/GB/attack_bow_front_64/sprite_2.png" type="Texture" id=3]
[ext_resource path="res://fight_mode/assets/Sprites/Characters/GB/attack_bow_front_64/sprite_3.png" type="Texture" id=4]
[ext_resource path="res://fight_mode/assets/Sprites/Characters/GB/attack_bow_front_64/sprite_4.png" type="Texture" id=5]
[ext_resource path="res://fight_mode/assets/Sprites/Characters/GB/attack_bow_front_64/sprite_5.png" type="Texture" id=6]
[ext_resource path="res://fight_mode/assets/Sprites/Characters/GB/attack_bow_front_64/sprite_6.png" type="Texture" id=7]
[ext_resource path="res://fight_mode/assets/Sprites/Characters/GB/wait_front_64/sprite_0.png" type="Texture" id=8]
[ext_resource path="res://fight_mode/assets/Sprites/Characters/GB/wait_front_64/sprite_1.png" type="Texture" id=9]
[ext_resource path="res://fight_mode/assets/Sprites/Characters/GB/wait_front_64/sprite_2.png" type="Texture" id=10]
[ext_resource path="res://fight_mode/assets/Sprites/Characters/GB/wait_front_64/sprite_3.png" type="Texture" id=11]
[ext_resource path="res://fight_mode/assets/Sprites/Characters/GB/wait_front_64/sprite_4.png" type="Texture" id=12]
[ext_resource path="res://fight_mode/assets/Sprites/Characters/GB/wait_front_64/sprite_5.png" type="Texture" id=13]
[ext_resource path="res://fight_mode/assets/Sprites/Characters/GB/walk_sword_back_64/sprite_0.png" type="Texture" id=14]
[ext_resource path="res://fight_mode/assets/Sprites/Characters/GB/walk_sword_back_64/sprite_1.png" type="Texture" id=15]
[ext_resource path="res://fight_mode/assets/Sprites/Characters/GB/walk_sword_back_64/sprite_2.png" type="Texture" id=16]
[ext_resource path="res://fight_mode/assets/Sprites/Characters/GB/walk_sword_back_64/sprite_3.png" type="Texture" id=17]
[ext_resource path="res://fight_mode/assets/Sprites/Characters/GB/wait_sword_right_64/sprite_0.png" type="Texture" id=18]
[ext_resource path="res://fight_mode/assets/Sprites/Characters/GB/wait_sword_right_64/sprite_1.png" type="Texture" id=19]
[ext_resource path="res://fight_mode/assets/Sprites/Characters/GB/wait_sword_right_64/sprite_2.png" type="Texture" id=20]
[ext_resource path="res://fight_mode/assets/Sprites/Characters/GB/wait_sword_right_64/sprite_3.png" type="Texture" id=21]
[ext_resource path="res://fight_mode/assets/Sprites/Characters/GB/walk_sword_front_64/sprite_0.png" type="Texture" id=22]
[ext_resource path="res://fight_mode/assets/Sprites/Characters/GB/walk_sword_front_64/sprite_1.png" type="Texture" id=23]
[ext_resource path="res://fight_mode/assets/Sprites/Characters/GB/walk_sword_front_64/sprite_2.png" type="Texture" id=24]
[ext_resource path="res://fight_mode/assets/Sprites/Characters/GB/walk_sword_front_64/sprite_3.png" type="Texture" id=25]
[ext_resource path="res://fight_mode/assets/Sprites/Characters/GB/walk_sword_right_64/sprite_0.png" type="Texture" id=26]
[ext_resource path="res://fight_mode/assets/Sprites/Characters/GB/walk_sword_right_64/sprite_1.png" type="Texture" id=27]
[ext_resource path="res://fight_mode/assets/Sprites/Characters/GB/walk_sword_right_64/sprite_2.png" type="Texture" id=28]
[ext_resource path="res://fight_mode/assets/Sprites/Characters/GB/walk_sword_right_64/sprite_3.png" type="Texture" id=29]
[ext_resource path="res://fight_mode/assets/Sprites/Characters/GB/walk_right_64/sprite_0.png" type="Texture" id=30]
[ext_resource path="res://fight_mode/assets/Sprites/Characters/GB/walk_right_64/sprite_1.png" type="Texture" id=31]
[ext_resource path="res://fight_mode/assets/Sprites/Characters/GB/walk_right_64/sprite_2.png" type="Texture" id=32]
[ext_resource path="res://fight_mode/assets/Sprites/Characters/GB/walk_right_64/sprite_3.png" type="Texture" id=33]
[ext_resource path="res://fight_mode/assets/Sprites/Characters/GB/attack_sword_left_64/sprite_0.png" type="Texture" id=34]
[ext_resource path="res://fight_mode/assets/Sprites/Characters/GB/attack_sword_left_64/sprite_1.png" type="Texture" id=35]
[ext_resource path="res://fight_mode/assets/Sprites/Characters/GB/attack_sword_left_64/sprite_2.png" type="Texture" id=36]
[ext_resource path="res://fight_mode/assets/Sprites/Characters/GB/wait_bow_front_64/sprite_0.png" type="Texture" id=37]
[ext_resource path="res://fight_mode/assets/Sprites/Characters/GB/wait_bow_front_64/sprite_1.png" type="Texture" id=38]
[ext_resource path="res://fight_mode/assets/Sprites/Characters/GB/wait_bow_front_64/sprite_2.png" type="Texture" id=39]
[ext_resource path="res://fight_mode/assets/Sprites/Characters/GB/wait_bow_front_64/sprite_3.png" type="Texture" id=40]
[ext_resource path="res://fight_mode/assets/Sprites/Characters/GB/wait_bow_front_64/sprite_4.png" type="Texture" id=41]
[ext_resource path="res://fight_mode/assets/Sprites/Characters/GB/wait_bow_front_64/sprite_5.png" type="Texture" id=42]
[ext_resource path="res://fight_mode/assets/Sprites/Characters/GB/wait_bow_front_64/sprite_6.png" type="Texture" id=43]
[ext_resource path="res://fight_mode/assets/Sprites/Characters/GB/wait_bow_front_64/sprite_7.png" type="Texture" id=44]
[ext_resource path="res://fight_mode/assets/Sprites/Characters/GB/wait_bow_right_64/sprite_0.png" type="Texture" id=45]
[ext_resource path="res://fight_mode/assets/Sprites/Characters/GB/wait_bow_right_64/sprite_1.png" type="Texture" id=46]
[ext_resource path="res://fight_mode/assets/Sprites/Characters/GB/wait_bow_right_64/sprite_2.png" type="Texture" id=47]
[ext_resource path="res://fight_mode/assets/Sprites/Characters/GB/wait_bow_right_64/sprite_3.png" type="Texture" id=48]
[ext_resource path="res://fight_mode/assets/Sprites/Characters/GB/wait_sword_back_64/sprite_0.png" type="Texture" id=49]
[ext_resource path="res://fight_mode/assets/Sprites/Characters/GB/wait_sword_back_64/sprite_1.png" type="Texture" id=50]
[ext_resource path="res://fight_mode/assets/Sprites/Characters/GB/wait_sword_back_64/sprite_2.png" type="Texture" id=51]
[ext_resource path="res://fight_mode/assets/Sprites/Characters/GB/wait_sword_back_64/sprite_3.png" type="Texture" id=52]
[ext_resource path="res://fight_mode/assets/Sprites/Characters/GB/wait_sword_left_64/sprite_0.png" type="Texture" id=53]
[ext_resource path="res://fight_mode/assets/Sprites/Characters/GB/wait_sword_left_64/sprite_1.png" type="Texture" id=54]
[ext_resource path="res://fight_mode/assets/Sprites/Characters/GB/wait_sword_left_64/sprite_2.png" type="Texture" id=55]
[ext_resource path="res://fight_mode/assets/Sprites/Characters/GB/wait_sword_left_64/sprite_3.png" type="Texture" id=56]
[ext_resource path="res://fight_mode/assets/Sprites/Characters/GB/pass_right_64/sprite_0.png" type="Texture" id=57]
[ext_resource path="res://fight_mode/assets/Sprites/Characters/GB/pass_right_64/sprite_1.png" type="Texture" id=58]
[ext_resource path="res://fight_mode/assets/Sprites/Characters/GB/attack_sword_back_64/sprite_0.png" type="Texture" id=59]
[ext_resource path="res://fight_mode/assets/Sprites/Characters/GB/attack_sword_back_64/sprite_1.png" type="Texture" id=60]
[ext_resource path="res://fight_mode/assets/Sprites/Characters/GB/attack_sword_back_64/sprite_2.png" type="Texture" id=61]
[ext_resource path="res://fight_mode/assets/Sprites/Characters/GB/attack_sword_back_64/sprite_3.png" type="Texture" id=62]
[ext_resource path="res://fight_mode/assets/Sprites/Characters/GB/walk_left_64/sprite_0.png" type="Texture" id=63]
[ext_resource path="res://fight_mode/assets/Sprites/Characters/GB/walk_left_64/sprite_1.png" type="Texture" id=64]
[ext_resource path="res://fight_mode/assets/Sprites/Characters/GB/walk_left_64/sprite_2.png" type="Texture" id=65]
[ext_resource path="res://fight_mode/assets/Sprites/Characters/GB/walk_left_64/sprite_3.png" type="Texture" id=66]
[ext_resource path="res://fight_mode/assets/Sprites/Characters/GB/pass_sword_front_64/sprite_0.png" type="Texture" id=67]
[ext_resource path="res://fight_mode/assets/Sprites/Characters/GB/pass_sword_front_64/sprite_1.png" type="Texture" id=68]
[ext_resource path="res://fight_mode/assets/Sprites/Characters/GB/pass_front_64/sprite_0.png" type="Texture" id=69]
[ext_resource path="res://fight_mode/assets/Sprites/Characters/GB/pass_front_64/sprite_1.png" type="Texture" id=70]
[ext_resource path="res://fight_mode/assets/Sprites/Characters/GB/attack_bow_left_64/sprite_0.png" type="Texture" id=71]
[ext_resource path="res://fight_mode/assets/Sprites/Characters/GB/attack_bow_left_64/sprite_1.png" type="Texture" id=72]
[ext_resource path="res://fight_mode/assets/Sprites/Characters/GB/attack_bow_left_64/sprite_2.png" type="Texture" id=73]
[ext_resource path="res://fight_mode/assets/Sprites/Characters/GB/attack_bow_left_64/sprite_3.png" type="Texture" id=74]
[ext_resource path="res://fight_mode/assets/Sprites/Characters/GB/attack_bow_left_64/sprite_4.png" type="Texture" id=75]
[ext_resource path="res://fight_mode/assets/Sprites/Characters/GB/pass_sword_right_64/sprite_0.png" type="Texture" id=76]
[ext_resource path="res://fight_mode/assets/Sprites/Characters/GB/pass_sword_right_64/sprite_1.png" type="Texture" id=77]
[ext_resource path="res://fight_mode/assets/Sprites/Characters/GB/attack_bow_right_64/sprite_0.png" type="Texture" id=78]
[ext_resource path="res://fight_mode/assets/Sprites/Characters/GB/attack_bow_right_64/sprite_1.png" type="Texture" id=79]
[ext_resource path="res://fight_mode/assets/Sprites/Characters/GB/attack_bow_right_64/sprite_2.png" type="Texture" id=80]
[ext_resource path="res://fight_mode/assets/Sprites/Characters/GB/attack_bow_right_64/sprite_3.png" type="Texture" id=81]
[ext_resource path="res://fight_mode/assets/Sprites/Characters/GB/attack_bow_right_64/sprite_4.png" type="Texture" id=82]
[ext_resource path="res://fight_mode/assets/Sprites/Characters/GB/pass_left_64/sprite_0.png" type="Texture" id=83]
[ext_resource path="res://fight_mode/assets/Sprites/Characters/GB/pass_left_64/sprite_1.png" type="Texture" id=84]
[ext_resource path="res://fight_mode/assets/Sprites/Characters/GB/attack_bow_back_64/sprite_0.png" type="Texture" id=85]
[ext_resource path="res://fight_mode/assets/Sprites/Characters/GB/attack_bow_back_64/sprite_1.png" type="Texture" id=86]
[ext_resource path="res://fight_mode/assets/Sprites/Characters/GB/attack_bow_back_64/sprite_2.png" type="Texture" id=87]
[ext_resource path="res://fight_mode/assets/Sprites/Characters/GB/attack_bow_back_64/sprite_3.png" type="Texture" id=88]
[ext_resource path="res://fight_mode/assets/Sprites/Characters/GB/attack_bow_back_64/sprite_4.png" type="Texture" id=89]
[ext_resource path="res://fight_mode/assets/Sprites/Characters/GB/attack_bow_back_64/sprite_5.png" type="Texture" id=90]
[ext_resource path="res://fight_mode/assets/Sprites/Characters/GB/attack_bow_back_64/sprite_6.png" type="Texture" id=91]
[ext_resource path="res://fight_mode/assets/Sprites/Characters/GB/pass_sword_left_64/sprite_0.png" type="Texture" id=92]
[ext_resource path="res://fight_mode/assets/Sprites/Characters/GB/pass_sword_left_64/sprite_1.png" type="Texture" id=93]
[ext_resource path="res://fight_mode/assets/Sprites/Characters/GB/pass_sword_back_64/sprite_0.png" type="Texture" id=94]
[ext_resource path="res://fight_mode/assets/Sprites/Characters/GB/pass_sword_back_64/sprite_1.png" type="Texture" id=95]
[ext_resource path="res://fight_mode/assets/Sprites/Characters/GB/wait_back_64/sprite_0.png" type="Texture" id=96]
[ext_resource path="res://fight_mode/assets/Sprites/Characters/GB/wait_back_64/sprite_1.png" type="Texture" id=97]
[ext_resource path="res://fight_mode/assets/Sprites/Characters/GB/wait_back_64/sprite_2.png" type="Texture" id=98]
[ext_resource path="res://fight_mode/assets/Sprites/Characters/GB/wait_back_64/sprite_3.png" type="Texture" id=99]
[ext_resource path="res://fight_mode/assets/Sprites/Characters/GB/wait_back_64/sprite_4.png" type="Texture" id=100]
[ext_resource path="res://fight_mode/assets/Sprites/Characters/GB/wait_back_64/sprite_5.png" type="Texture" id=101]
[ext_resource path="res://fight_mode/assets/Sprites/Characters/GB/walk_sword_left_64/sprite_0.png" type="Texture" id=102]
[ext_resource path="res://fight_mode/assets/Sprites/Characters/GB/walk_sword_left_64/sprite_1.png" type="Texture" id=103]
[ext_resource path="res://fight_mode/assets/Sprites/Characters/GB/walk_sword_left_64/sprite_2.png" type="Texture" id=104]
[ext_resource path="res://fight_mode/assets/Sprites/Characters/GB/walk_sword_left_64/sprite_3.png" type="Texture" id=105]
[ext_resource path="res://fight_mode/assets/Sprites/Characters/GB/pass_bow_left_64/sprite_0.png" type="Texture" id=106]
[ext_resource path="res://fight_mode/assets/Sprites/Characters/GB/pass_bow_left_64/sprite_1.png" type="Texture" id=107]
[ext_resource path="res://fight_mode/assets/Sprites/Characters/GB/pass_back_64/sprite_0.png" type="Texture" id=108]
[ext_resource path="res://fight_mode/assets/Sprites/Characters/GB/pass_back_64/sprite_1.png" type="Texture" id=109]
[ext_resource path="res://fight_mode/assets/Sprites/Characters/GB/wait_left_64/sprite_0.png" type="Texture" id=110]
[ext_resource path="res://fight_mode/assets/Sprites/Characters/GB/wait_left_64/sprite_1.png" type="Texture" id=111]
[ext_resource path="res://fight_mode/assets/Sprites/Characters/GB/wait_left_64/sprite_2.png" type="Texture" id=112]
[ext_resource path="res://fight_mode/assets/Sprites/Characters/GB/wait_left_64/sprite_3.png" type="Texture" id=113]
[ext_resource path="res://fight_mode/assets/Sprites/Characters/GB/wait_left_64/sprite_4.png" type="Texture" id=114]
[ext_resource path="res://fight_mode/assets/Sprites/Characters/GB/wait_left_64/sprite_5.png" type="Texture" id=115]
[ext_resource path="res://fight_mode/assets/Sprites/Characters/GB/wait_bow_left_64/sprite_0.png" type="Texture" id=116]
[ext_resource path="res://fight_mode/assets/Sprites/Characters/GB/wait_bow_left_64/sprite_1.png" type="Texture" id=117]
[ext_resource path="res://fight_mode/assets/Sprites/Characters/GB/wait_bow_left_64/sprite_2.png" type="Texture" id=118]
[ext_resource path="res://fight_mode/assets/Sprites/Characters/GB/wait_bow_left_64/sprite_3.png" type="Texture" id=119]
[ext_resource path="res://fight_mode/assets/Sprites/Characters/GB/pass_bow_back_64/sprite_0.png" type="Texture" id=120]
[ext_resource path="res://fight_mode/assets/Sprites/Characters/GB/pass_bow_back_64/sprite_1.png" type="Texture" id=121]
[ext_resource path="res://fight_mode/assets/Sprites/Characters/GB/pass_bow_front_64/sprite_0.png" type="Texture" id=122]
[ext_resource path="res://fight_mode/assets/Sprites/Characters/GB/pass_bow_front_64/sprite_1.png" type="Texture" id=123]
[ext_resource path="res://fight_mode/assets/Sprites/Characters/GB/walk_back_64/sprite_0.png" type="Texture" id=124]
[ext_resource path="res://fight_mode/assets/Sprites/Characters/GB/walk_back_64/sprite_1.png" type="Texture" id=125]
[ext_resource path="res://fight_mode/assets/Sprites/Characters/GB/walk_back_64/sprite_2.png" type="Texture" id=126]
[ext_resource path="res://fight_mode/assets/Sprites/Characters/GB/walk_back_64/sprite_3.png" type="Texture" id=127]
[ext_resource path="res://fight_mode/assets/Sprites/Characters/GB/wait_sword_front_64/sprite_0.png" type="Texture" id=128]
[ext_resource path="res://fight_mode/assets/Sprites/Characters/GB/wait_sword_front_64/sprite_1.png" type="Texture" id=129]
[ext_resource path="res://fight_mode/assets/Sprites/Characters/GB/wait_sword_front_64/sprite_2.png" type="Texture" id=130]
[ext_resource path="res://fight_mode/assets/Sprites/Characters/GB/wait_sword_front_64/sprite_3.png" type="Texture" id=131]
[ext_resource path="res://fight_mode/assets/Sprites/Characters/GB/walk_bow_right_64/sprite_0.png" type="Texture" id=132]
[ext_resource path="res://fight_mode/assets/Sprites/Characters/GB/walk_bow_right_64/sprite_1.png" type="Texture" id=133]
[ext_resource path="res://fight_mode/assets/Sprites/Characters/GB/walk_bow_right_64/sprite_2.png" type="Texture" id=134]
[ext_resource path="res://fight_mode/assets/Sprites/Characters/GB/walk_bow_right_64/sprite_3.png" type="Texture" id=135]
[ext_resource path="res://fight_mode/assets/Sprites/Characters/GB/attack_sword_right_64/sprite_0.png" type="Texture" id=136]
[ext_resource path="res://fight_mode/assets/Sprites/Characters/GB/attack_sword_right_64/sprite_1.png" type="Texture" id=137]
[ext_resource path="res://fight_mode/assets/Sprites/Characters/GB/attack_sword_right_64/sprite_2.png" type="Texture" id=138]
[ext_resource path="res://fight_mode/assets/Sprites/Characters/GB/wait_bow_back_64/sprite_0.png" type="Texture" id=139]
[ext_resource path="res://fight_mode/assets/Sprites/Characters/GB/wait_bow_back_64/sprite_1.png" type="Texture" id=140]
[ext_resource path="res://fight_mode/assets/Sprites/Characters/GB/wait_bow_back_64/sprite_2.png" type="Texture" id=141]
[ext_resource path="res://fight_mode/assets/Sprites/Characters/GB/wait_bow_back_64/sprite_3.png" type="Texture" id=142]
[ext_resource path="res://fight_mode/assets/Sprites/Characters/GB/wait_bow_back_64/sprite_4.png" type="Texture" id=143]
[ext_resource path="res://fight_mode/assets/Sprites/Characters/GB/wait_bow_back_64/sprite_5.png" type="Texture" id=144]
[ext_resource path="res://fight_mode/assets/Sprites/Characters/GB/wait_bow_back_64/sprite_6.png" type="Texture" id=145]
[ext_resource path="res://fight_mode/assets/Sprites/Characters/GB/wait_bow_back_64/sprite_7.png" type="Texture" id=146]
[ext_resource path="res://fight_mode/assets/Sprites/Characters/GB/hurt_front_64/sprite_0.png" type="Texture" id=147]
[ext_resource path="res://fight_mode/assets/Sprites/Characters/GB/hurt_front_64/sprite_1.png" type="Texture" id=148]
[ext_resource path="res://fight_mode/assets/Sprites/Characters/GB/get_pass_front_64/sprite_0.png" type="Texture" id=149]
[ext_resource path="res://fight_mode/assets/Sprites/Characters/GB/get_pass_front_64/sprite_1.png" type="Texture" id=150]
[ext_resource path="res://fight_mode/assets/Sprites/Characters/GB/get_pass_front_64/sprite_2.png" type="Texture" id=151]
[ext_resource path="res://fight_mode/assets/Sprites/Characters/GB/walk_bow_left_64/sprite_0.png" type="Texture" id=152]
[ext_resource path="res://fight_mode/assets/Sprites/Characters/GB/walk_bow_left_64/sprite_1.png" type="Texture" id=153]
[ext_resource path="res://fight_mode/assets/Sprites/Characters/GB/walk_bow_left_64/sprite_2.png" type="Texture" id=154]
[ext_resource path="res://fight_mode/assets/Sprites/Characters/GB/walk_bow_left_64/sprite_3.png" type="Texture" id=155]
[ext_resource path="res://fight_mode/assets/Sprites/Characters/GB/get_pass_back_64/sprite_0.png" type="Texture" id=156]
[ext_resource path="res://fight_mode/assets/Sprites/Characters/GB/get_pass_back_64/sprite_1.png" type="Texture" id=157]
[ext_resource path="res://fight_mode/assets/Sprites/Characters/GB/get_pass_back_64/sprite_2.png" type="Texture" id=158]
[ext_resource path="res://fight_mode/assets/Sprites/Characters/GB/pass_bow_right_64/sprite_0.png" type="Texture" id=159]
[ext_resource path="res://fight_mode/assets/Sprites/Characters/GB/pass_bow_right_64/sprite_1.png" type="Texture" id=160]
[ext_resource path="res://fight_mode/assets/Sprites/Characters/GB/get_pass_right_64/sprite_0.png" type="Texture" id=161]
[ext_resource path="res://fight_mode/assets/Sprites/Characters/GB/get_pass_right_64/sprite_1.png" type="Texture" id=162]
[ext_resource path="res://fight_mode/assets/Sprites/Characters/GB/get_pass_right_64/sprite_2.png" type="Texture" id=163]
[ext_resource path="res://fight_mode/assets/Sprites/Characters/GB/attack_sword_front_64/sprite_0.png" type="Texture" id=164]
[ext_resource path="res://fight_mode/assets/Sprites/Characters/GB/attack_sword_front_64/sprite_1.png" type="Texture" id=165]
[ext_resource path="res://fight_mode/assets/Sprites/Characters/GB/attack_sword_front_64/sprite_2.png" type="Texture" id=166]
[ext_resource path="res://fight_mode/assets/Sprites/Characters/GB/get_pass_left_64/sprite_0.png" type="Texture" id=167]
[ext_resource path="res://fight_mode/assets/Sprites/Characters/GB/get_pass_left_64/sprite_1.png" type="Texture" id=168]
[ext_resource path="res://fight_mode/assets/Sprites/Characters/GB/get_pass_left_64/sprite_2.png" type="Texture" id=169]
[ext_resource path="res://fight_mode/assets/Sprites/Characters/GB/wait_right_64/sprite_0.png" type="Texture" id=170]
[ext_resource path="res://fight_mode/assets/Sprites/Characters/GB/wait_right_64/sprite_1.png" type="Texture" id=171]
[ext_resource path="res://fight_mode/assets/Sprites/Characters/GB/wait_right_64/sprite_2.png" type="Texture" id=172]
[ext_resource path="res://fight_mode/assets/Sprites/Characters/GB/wait_right_64/sprite_3.png" type="Texture" id=173]
[ext_resource path="res://fight_mode/assets/Sprites/Characters/GB/wait_right_64/sprite_4.png" type="Texture" id=174]
[ext_resource path="res://fight_mode/assets/Sprites/Characters/GB/wait_right_64/sprite_5.png" type="Texture" id=175]
[ext_resource path="res://fight_mode/assets/Sprites/Characters/GB/walk_front_64/sprite_0.png" type="Texture" id=176]
[ext_resource path="res://fight_mode/assets/Sprites/Characters/GB/walk_front_64/sprite_1.png" type="Texture" id=177]
[ext_resource path="res://fight_mode/assets/Sprites/Characters/GB/walk_front_64/sprite_2.png" type="Texture" id=178]
[ext_resource path="res://fight_mode/assets/Sprites/Characters/GB/walk_front_64/sprite_3.png" type="Texture" id=179]
[ext_resource path="res://fight_mode/assets/Sprites/Characters/GB/walk_bow_back_64/sprite_0.png" type="Texture" id=180]
[ext_resource path="res://fight_mode/assets/Sprites/Characters/GB/walk_bow_back_64/sprite_1.png" type="Texture" id=181]
[ext_resource path="res://fight_mode/assets/Sprites/Characters/GB/walk_bow_back_64/sprite_2.png" type="Texture" id=182]
[ext_resource path="res://fight_mode/assets/Sprites/Characters/GB/walk_bow_back_64/sprite_3.png" type="Texture" id=183]
[ext_resource path="res://fight_mode/assets/Sprites/Characters/GB/walk_bow_front_64/sprite_0.png" type="Texture" id=184]
[ext_resource path="res://fight_mode/assets/Sprites/Characters/GB/walk_bow_front_64/sprite_1.png" type="Texture" id=185]
[ext_resource path="res://fight_mode/assets/Sprites/Characters/GB/walk_bow_front_64/sprite_2.png" type="Texture" id=186]
[ext_resource path="res://fight_mode/assets/Sprites/Characters/GB/walk_bow_front_64/sprite_3.png" type="Texture" id=187]

[resource]

animations = [ {
"frames": [ ExtResource( 1 ), ExtResource( 2 ), ExtResource( 3 ), ExtResource( 4 ), ExtResource( 5 ), ExtResource( 6 ), ExtResource( 7 ) ],
"loop": false,
"name": "attack_bow_down",
"speed": 5.0
}, {
"frames": [ ExtResource( 8 ), ExtResource( 9 ), ExtResource( 10 ), ExtResource( 11 ), ExtResource( 12 ), ExtResource( 13 ) ],
"loop": true,
"name": "wait_down",
"speed": 5.0
}, {
"frames": [ ExtResource( 14 ), ExtResource( 15 ), ExtResource( 16 ), ExtResource( 17 ) ],
"loop": true,
"name": "walk_sword_up",
"speed": 5.0
}, {
"frames": [ ExtResource( 18 ), ExtResource( 19 ), ExtResource( 20 ), ExtResource( 21 ) ],
"loop": true,
"name": "wait_sword_right",
"speed": 5.0
}, {
"frames": [ ExtResource( 22 ), ExtResource( 23 ), ExtResource( 24 ), ExtResource( 25 ) ],
"loop": true,
"name": "walk_sword_down",
"speed": 5.0
}, {
"frames": [ ExtResource( 26 ), ExtResource( 27 ), ExtResource( 28 ), ExtResource( 29 ) ],
"loop": true,
"name": "walk_sword_right",
"speed": 5.0
}, {
"frames": [ ExtResource( 30 ), ExtResource( 31 ), ExtResource( 32 ), ExtResource( 33 ) ],
"loop": true,
"name": "walk_right",
"speed": 5.0
}, {
"frames": [ ExtResource( 34 ), ExtResource( 35 ), ExtResource( 36 ) ],
"loop": false,
"name": "attack_sword_left",
"speed": 5.0
}, {
"frames": [ ExtResource( 37 ), ExtResource( 38 ), ExtResource( 39 ), ExtResource( 40 ), ExtResource( 41 ), ExtResource( 42 ), ExtResource( 43 ), ExtResource( 44 ) ],
"loop": true,
"name": "wait_bow_down",
"speed": 5.0
}, {
"frames": [ ExtResource( 45 ), ExtResource( 46 ), ExtResource( 47 ), ExtResource( 48 ) ],
"loop": true,
"name": "wait_bow_right",
"speed": 5.0
}, {
"frames": [ ExtResource( 49 ), ExtResource( 50 ), ExtResource( 51 ), ExtResource( 52 ) ],
"loop": true,
"name": "wait_sword_up",
"speed": 5.0
}, {
"frames": [ ExtResource( 53 ), ExtResource( 54 ), ExtResource( 55 ), ExtResource( 56 ) ],
"loop": true,
"name": "wait_sword_left",
"speed": 5.0
}, {
"frames": [ ExtResource( 57 ), ExtResource( 58 ) ],
"loop": false,
"name": "pass_right",
"speed": 5.0
}, {
"frames": [ ExtResource( 59 ), ExtResource( 60 ), ExtResource( 61 ), ExtResource( 62 ) ],
"loop": false,
"name": "attack_sword_up",
"speed": 5.0
}, {
"frames": [ ExtResource( 63 ), ExtResource( 64 ), ExtResource( 65 ), ExtResource( 66 ) ],
"loop": true,
"name": "walk_left",
"speed": 5.0
}, {
"frames": [ ExtResource( 67 ), ExtResource( 68 ) ],
"loop": true,
"name": "pass_sword_down",
"speed": 5.0
}, {
"frames": [ ExtResource( 69 ), ExtResource( 70 ) ],
"loop": false,
"name": "pass_down",
"speed": 5.0
}, {
"frames": [ ExtResource( 71 ), ExtResource( 72 ), ExtResource( 73 ), ExtResource( 74 ), ExtResource( 75 ) ],
"loop": false,
"name": "attack_bow_left",
"speed": 5.0
}, {
"frames": [ ExtResource( 76 ), ExtResource( 77 ) ],
"loop": true,
"name": "pass_sword_right",
"speed": 5.0
}, {
"frames": [ ExtResource( 78 ), ExtResource( 79 ), ExtResource( 80 ), ExtResource( 81 ), ExtResource( 82 ) ],
"loop": false,
"name": "attack_bow_right",
"speed": 5.0
}, {
"frames": [ ExtResource( 83 ), ExtResource( 84 ) ],
"loop": false,
"name": "pass_left",
"speed": 5.0
}, {
"frames": [ ExtResource( 85 ), ExtResource( 86 ), ExtResource( 87 ), ExtResource( 88 ), ExtResource( 89 ), ExtResource( 90 ), ExtResource( 91 ) ],
"loop": false,
"name": "attack_bow_up",
"speed": 5.0
}, {
"frames": [ ExtResource( 92 ), ExtResource( 93 ) ],
"loop": true,
"name": "pass_sword_left",
"speed": 5.0
}, {
"frames": [ ExtResource( 94 ), ExtResource( 95 ) ],
"loop": true,
"name": "pass_sword_up",
"speed": 5.0
}, {
"frames": [ ExtResource( 96 ), ExtResource( 97 ), ExtResource( 98 ), ExtResource( 99 ), ExtResource( 100 ), ExtResource( 101 ) ],
"loop": true,
"name": "wait_up",
"speed": 5.0
}, {
"frames": [ ExtResource( 102 ), ExtResource( 103 ), ExtResource( 104 ), ExtResource( 105 ) ],
"loop": true,
"name": "walk_sword_left",
"speed": 5.0
}, {
"frames": [ ExtResource( 106 ), ExtResource( 107 ) ],
"loop": true,
"name": "pass_bow_left",
"speed": 5.0
}, {
"frames": [ ExtResource( 108 ), ExtResource( 109 ) ],
"loop": false,
"name": "pass_up",
"speed": 5.0
}, {
"frames": [ ExtResource( 110 ), ExtResource( 111 ), ExtResource( 112 ), ExtResource( 113 ), ExtResource( 114 ), ExtResource( 115 ) ],
"loop": true,
"name": "wait_left",
"speed": 5.0
}, {
"frames": [ ExtResource( 116 ), ExtResource( 117 ), ExtResource( 118 ), ExtResource( 119 ) ],
"loop": true,
"name": "wait_bow_left",
"speed": 5.0
}, {
"frames": [ ExtResource( 120 ), ExtResource( 121 ) ],
"loop": true,
"name": "pass_bow_up",
"speed": 5.0
}, {
"frames": [ ExtResource( 122 ), ExtResource( 123 ) ],
"loop": true,
"name": "pass_bow_down",
"speed": 5.0
}, {
"frames": [ ExtResource( 124 ), ExtResource( 125 ), ExtResource( 126 ), ExtResource( 127 ) ],
"loop": true,
"name": "walk_up",
"speed": 5.0
}, {
"frames": [ ExtResource( 128 ), ExtResource( 129 ), ExtResource( 130 ), ExtResource( 131 ) ],
"loop": true,
"name": "wait_sword_down",
"speed": 5.0
}, {
"frames": [ ExtResource( 132 ), ExtResource( 133 ), ExtResource( 134 ), ExtResource( 135 ) ],
"loop": true,
"name": "walk_bow_right",
"speed": 5.0
}, {
"frames": [ ExtResource( 136 ), ExtResource( 137 ), ExtResource( 138 ) ],
"loop": false,
"name": "attack_sword_right",
"speed": 5.0
}, {
"frames": [ ExtResource( 139 ), ExtResource( 140 ), ExtResource( 141 ), ExtResource( 142 ), ExtResource( 143 ), ExtResource( 144 ), ExtResource( 145 ), ExtResource( 146 ) ],
"loop": true,
"name": "wait_bow_up",
"speed": 5.0
}, {
"frames": [ ExtResource( 147 ), ExtResource( 148 ) ],
"loop": true,
"name": "afraid",
"speed": 5.0
}, {
"frames": [ ExtResource( 149 ), ExtResource( 150 ), ExtResource( 149 ), ExtResource( 151 ), ExtResource( 149 ), ExtResource( 151 ), ExtResource( 149 ), ExtResource( 151 ), ExtResource( 150 ) ],
"loop": true,
"name": "get_pass_down",
"speed": 5.0
}, {
"frames": [ ExtResource( 152 ), ExtResource( 153 ), ExtResource( 154 ), ExtResource( 155 ) ],
"loop": true,
"name": "walk_bow_left",
"speed": 5.0
}, {
"frames": [ ExtResource( 156 ), ExtResource( 157 ), ExtResource( 156 ), ExtResource( 158 ), ExtResource( 156 ), ExtResource( 158 ), ExtResource( 156 ), ExtResource( 158 ), ExtResource( 157 ) ],
"loop": true,
"name": "get_pass_up",
"speed": 5.0
}, {
"frames": [ ExtResource( 159 ), ExtResource( 160 ) ],
"loop": true,
"name": "pass_bow_right",
"speed": 5.0
}, {
"frames": [ ExtResource( 161 ), ExtResource( 162 ), ExtResource( 161 ), ExtResource( 163 ), ExtResource( 161 ), ExtResource( 163 ), ExtResource( 161 ), ExtResource( 163 ), ExtResource( 162 ) ],
"loop": true,
"name": "get_pass_right",
"speed": 5.0
}, {
"frames": [ ExtResource( 164 ), ExtResource( 165 ), ExtResource( 166 ) ],
"loop": false,
"name": "attack_sword_down",
"speed": 5.0
}, {
"frames": [ ExtResource( 167 ), ExtResource( 168 ), ExtResource( 167 ), ExtResource( 169 ), ExtResource( 167 ), ExtResource( 169 ), ExtResource( 167 ), ExtResource( 169 ), ExtResource( 168 ) ],
"loop": true,
"name": "get_pass_left",
"speed": 5.0
}, {
"frames": [ ExtResource( 170 ), ExtResource( 171 ), ExtResource( 172 ), ExtResource( 173 ), ExtResource( 174 ), ExtResource( 175 ) ],
"loop": true,
"name": "wait_right",
"speed": 5.0
}, {
"frames": [ ExtResource( 176 ), ExtResource( 177 ), ExtResource( 178 ), ExtResource( 179 ) ],
"loop": true,
"name": "walk_down",
"speed": 5.0
}, {
"frames": [ ExtResource( 180 ), ExtResource( 181 ), ExtResource( 182 ), ExtResource( 183 ) ],
"loop": true,
"name": "walk_bow_up",
"speed": 5.0
}, {
"frames": [ ExtResource( 184 ), ExtResource( 185 ), ExtResource( 186 ), ExtResource( 187 ) ],
"loop": true,
"name": "walk_bow_down",
"speed": 5.0
} ]

